{
    "app-id" : "info.febvre.Komikku",
    "runtime" : "org.gnome.Platform",
    "runtime-version" : "3.34",
    "sdk" : "org.gnome.Sdk",
    "command" : "komikku",
    "finish-args" : [
        "--share=ipc",
        "--share=network",
        "--socket=x11",
        "--socket=wayland",
        "--device=dri",
        "--talk-name=org.freedesktop.Notifications",
        "--talk-name=org.gnome.SettingsDaemon.Color"
    ],
    "modules" : [
        "python3-dateparser.json",
        "python3-pillow.json",
        "python3-pure-protobuf.json",
        "python3-python-magic.json",
        "python3-unidecode.json",
        "python3-cloudscraper.json",
        "python3-lxml.json",
        "python3-beautifulsoup4.json",
        {
            "name" : "libhandy",
            "buildsystem" : "meson",
            "config-opts" : [
                "-Dtests=false",
                "-Dexamples=false",
                "-Dgtk_doc=false",
                "-Dvapi=false",
                "-Dglade_catalog=disabled"
            ],
            "cleanup" : [
                "/include",
                "/lib/pkgconfig"
            ],
            "sources" : [
                {
                    "type" : "git",
                    "url" : "https://source.puri.sm/Librem5/libhandy.git",
                    "tag" : "v0.0.13"
                }
            ]
        },
        {
            "name" : "komikku",
            "buildsystem" : "meson",
            "builddir" : true,
            "config-opts" : [
                "-Dprofile=default"
            ],
            "sources" : [
                {
                    "type" : "archive",
                    "url" : "https://gitlab.com/valos/Komikku/-/archive/v0.6.2/Komikku-v0.6.2.tar.bz2",
                    "sha256" : "eecb17bc621e20f5ca5e2764fccfb125981dfa6fc14232243b68088be6b06f29"
                }
            ]
        }
    ]
}
